<svg xmlns="http://www.w3.org/2000/svg" width="103" height="29" viewBox="0 0 103 29">
    <g fill="none" fill-rule="evenodd">
        <path fill="#3AB24F" d="M14.776 17.452c0 3.734.005 7.52.005 11.255a14.66 14.66 0 0 0 5.64-1.338v-.001c-.147-.214-.314-.421-.462-.635-.27-.39-.525-.79-.794-1.18-.208-.337-.433-.662-.641-.998a40.706 40.706 0 0 1-1.784-3.107l-.54-1.06a14.948 14.948 0 0 1-.676-1.352c-.236-.506-.533-1.055-.748-1.584m-.854 0c-.39.817-.781 1.633-1.174 2.449l-.872 1.638c-.693 1.208-1.323 2.423-2.08 3.555-.368.548-.72 1.096-1.088 1.63-.146.21-.292.42-.44.63l-.001.008c1.452.698 3.555 1.289 5.665 1.345l-.01-11.255m1.59-.407l.45.95c.347.786.748 1.544 1.143 2.29.88 1.662 1.786 3.268 2.788 4.8.42.64.822 1.265 1.308 1.892.978-.527 1.805-1.146 2.595-1.81.327-.273 1.293-1.25 1.674-1.728-.741-.295-1.472-.662-2.163-1.011-2.107-1.063-4.023-2.245-5.81-3.622-.688-.561-1.448-1.195-1.984-1.761m-2.346-.002c-.481.5-.98.925-1.4 1.296-.89.79-1.891 1.457-2.908 2.116a33.372 33.372 0 0 1-2.723 1.572c-1.242.654-2.535 1.235-2.902 1.406 1.302 1.583 2.707 2.665 4.258 3.535.515-.725.97-1.352 1.408-2.053 1.047-1.67 2.056-3.384 2.972-5.201.353-.697.683-1.415 1.043-2.127.084-.182.167-.364.252-.544m2.674-.906c.665.75 1.424 1.386 2.197 1.992 2.363 1.853 5.055 3.3 7.967 4.618.935-1.36 1.737-2.863 2.242-4.758a65.36 65.36 0 0 1-4.451-.241c-1.595-.146-3.17-.35-4.647-.652a19.526 19.526 0 0 1-2.337-.6l-.971-.36m-3.013 0C9.406 17.475 4.698 17.91.462 17.99a14.532 14.532 0 0 0 2.234 4.747 54.415 54.415 0 0 0 3.877-1.921 28.132 28.132 0 0 0 4.23-2.812c.303-.248.598-.512.897-.76.179-.172.367-.33.545-.502.202-.196.357-.341.583-.604M.344 11.202a14.625 14.625 0 0 0-.342 3.376c.02.975.127 1.907.26 2.556.272-.008.542-.017.81-.027.468-.014.936-.041 1.404-.056.337-.025.673-.042 1.009-.066l.586-.04c.423-.051.853-.07 1.272-.113 1.877-.194 4.053-.52 5.446-.92 1.454-.415 1.874-.628 2.138-.748-2.071-.144-4.654-.791-6.708-1.465a35.223 35.223 0 0 1-1.755-.632 43.242 43.242 0 0 1-2.01-.843 34.337 34.337 0 0 1-2.11-1.022m28.014-.016l-.57.287c-.627.343-1.29.625-1.967.922-2.003.879-4.16 1.649-6.502 2.185-.765.175-1.571.334-2.364.449-.398.045-.8.09-1.197.138.205.1.359.154.545.229.5.203 1.03.36 1.588.518 1.489.42 3.25.7 4.912.877l2.24.184c.563.067 1.137.065 1.703.097.54.033 1.116.054 1.697.062.14-.724.239-1.585.26-2.456.022-.902-.056-1.94-.173-2.607a13.151 13.151 0 0 0-.172-.885M14.788.004l.002 9.83c.074-.278.149-.535.222-.813.144-.484.29-.965.436-1.451.218-.747.522-1.472.8-2.164.358-.887.766-1.77 1.212-2.568.649-1.157.864-1.492 1.287-2.152.27.087.543.189.809.28-.14.236-.492.802-.601.979-.401.649-.768 1.345-1.133 2.028-.671 1.256-1.275 2.869-1.76 4.478-.261.863-.526 1.785-.693 2.718h.006c.307-.506.61-.98.928-1.493.589-.893 1.24-1.835 1.953-2.65 1.733-1.977 2.39-2.655 4.514-4.303.233.173.466.357.692.533-.58.396-1.583 1.203-2.611 2.198a26.936 26.936 0 0 0-4.617 5.928c-.648 1.125-.851 1.54-1.075 2.244.009 0 2.354-2.028 10.046-8.675.284.366.592.714.863 1.097a14.405 14.405 0 0 1 2.07 4.285c-.241.128-.494.256-.737.383-.78.374-1.538.715-2.312 1.072-.727.283-1.461.58-2.182.846a38.433 38.433 0 0 1-4.306 1.218 26.658 26.658 0 0 1-3.248.493c-.401.038-1.048.057-1.465.034-1.358-.076-2.541-.262-3.827-.53a34.18 34.18 0 0 1-4.77-1.391A45.59 45.59 0 0 1 2.05 11.09c-.49-.25-.998-.49-1.488-.74.603-1.958 1.466-3.692 2.946-5.4 3.452 2.995 6.585 5.713 10.034 8.679-.261-.71-.37-1.102-1.042-2.231-.203-.334-.478-.798-.731-1.197-1.498-2.33-3.35-4.257-3.951-4.805a21.131 21.131 0 0 0-2.555-2.153c.209-.166.276-.214.68-.525.327.238 1.219.898 2.2 1.835 1.42 1.354 2.716 2.907 3.887 4.545.477.663.873 1.375 1.315 2.062-.094-.457-.207-1.017-.51-2.12a27.954 27.954 0 0 0-2.03-5.243A39.428 39.428 0 0 0 9.174.966C9.425.878 9.719.77 9.97.68c.31.48.572.924.852 1.393.85 1.42 1.555 2.99 2.165 4.652.274.738.492 1.509.723 2.28.07.275.144.548.217.822L13.922.007c.37-.007.512-.01.866-.003"/>
        <path fill="#FFF" d="M88.315 22.38c0 1.154.911 2.065 2.063 2.065a2.048 2.048 0 0 0 2.065-2.064v-5.36h7.235c1.047 0 1.877-.83 1.877-1.876 0-1.046-.83-1.876-1.877-1.876h-7.235V9.275h8.442a1.864 1.864 0 0 0 1.876-1.876c0-1.045-.83-1.876-1.876-1.876H90.378a2.047 2.047 0 0 0-2.063 2.063V22.38zm-2.699.082c0 1.099-.858 1.983-1.957 1.983-.965 0-1.608-.563-1.983-1.42l-1.259-2.948h-8.256l-1.314 3.08c-.348.806-1.045 1.288-1.903 1.288-1.07 0-1.902-.857-1.902-1.93 0-.294.107-.59.241-.884l6.54-14.768c.455-1.02 1.286-1.635 2.411-1.635h.242c1.126 0 1.93.616 2.385 1.635l6.54 14.768c.134.295.215.563.215.83zM76.29 10.24l-2.6 6.192h5.2l-2.6-6.192zM52.64 24.284H63.17c1.02 0 1.85-.803 1.85-1.822a1.853 1.853 0 0 0-1.85-1.85h-8.497v-3.94h7.157a1.831 1.831 0 0 0 1.85-1.822A1.853 1.853 0 0 0 61.83 13h-7.157V9.196h8.364a1.83 1.83 0 0 0 1.848-1.823c0-1.018-.83-1.85-1.848-1.85h-10.4a2.048 2.048 0 0 0-2.064 2.064V22.22c0 1.152.911 2.063 2.064 2.063zM34.582 7.424c0-1.151.912-2.062 2.064-2.062 1.153 0 2.064.91 2.064 2.063v13.107h7.64c1.045 0 1.875.83 1.875 1.876 0 1.045-.83 1.876-1.876 1.876h-9.703a2.048 2.048 0 0 1-2.064-2.063V7.425z"/>
    </g>
</svg>
